{
    "species": {
        "common": 0.7,
        "rare": 0.25,
        "legend": 0.05
    },
    "fishAssert": {
        "body": {
            "shape":1,
            "pattern": 19
        },
        "eye": {
            "shape":6,
            "pattern": 18
        },
        "arm": {
            "shape":3,
            "pattern": 19
        },
        "dorsal": {
            "shape":3,
            "pattern": 19
        },
        "ventral": {
            "shape":3,
            "pattern": 19
        },
        "tail": {
            "shape":1,
            "pattern": 19
        },
        "accessorie": 18
    },
    "loot": 0.25
}