module blobfish.com/datablob

go 1.17

require blobfish.com/helpers v0.0.0

require (
	gorm.io/driver/mysql v1.2.2
	gorm.io/gorm v1.22.4
)

require (
	github.com/go-sql-driver/mysql v1.6.0 // indirect
	github.com/jinzhu/inflection v1.0.0 // indirect
	github.com/jinzhu/now v1.1.3 // indirect
)

replace blobfish.com/helpers v0.0.0 => ../helpers
